{
  "project_info": {
    "project_number": "539757481695",
    "project_id": "ecomseipbatch2",
    "storage_bucket": "ecomseipbatch2.appspot.com"
  },
  "client": [
    {
      "client_info": {
        "mobilesdk_app_id": "1:539757481695:android:45880749c1b07c8e68e36a",
        "android_client_info": {
          "package_name": "com.tanvir.training.ecomadminbatch2"
        }
      },
      "oauth_client": [
        {
          "client_id": "539757481695-8f41qcmhth9pvsn1cos59ehve6ck56be.apps.googleusercontent.com",
          "client_type": 3
        }
      ],
      "api_key": [
        {
          "current_key": "AIzaSyBfpCyGD3diCDVrjF2gd7OgRiAhzMvS4mw"
        }
      ],
      "services": {
        "appinvite_service": {
          "other_platform_oauth_client": [
            {
              "client_id": "539757481695-8f41qcmhth9pvsn1cos59ehve6ck56be.apps.googleusercontent.com",
              "client_type": 3
            }
          ]
        }
      }
    }
  ],
  "configuration_version": "1"
}